{
  "movies": [
    {
      "id": "80890",
      "title": "공작",
      "image": "http://img.cgv.co.kr/Movie/Thumbnail/Poster/000080/80890/80890_20180731_0_320.jpg",
      "plays": [
        {
          "id": 1,
          "start": "15:45",
          "end": "18:12",
          "screen": {
            "name": "6관 10층",
            "numberOfSeats": "124"
          }
        },
        {
          "id": 2,
          "start": "26:40",
          "end": "29:07",
          "screen": {
            "name": "6관 10층",
            "numberOfSeats": "124"
          }
        }
      ]
    },
    {
      "id": "80910",
      "title": "나를 차버린 스파이",
      "image": "http://img.cgv.co.kr/Movie/Thumbnail/Poster/000080/80910/80910_20180809_0_320.jpg",
      "plays": [
        {
          "id": 3,
          "start": "16:35",
          "end": "18:42",
          "screen": {
            "name": "4관 8층",
            "numberOfSeats": "124"
          }
        },
        {
          "id": 4,
          "start": "08:00",
          "end": "10:07",
          "screen": {
            "name": "6관 10층",
            "numberOfSeats": "124"
          }
        },
        {
          "id": 5,
          "start": "13:20",
          "end": "15:27",
          "screen": {
            "name": "6관 10층",
            "numberOfSeats": "124"
          }
        },
        {
          "id": 6,
          "start": "24:10",
          "end": "26:17",
          "screen": {
            "name": "6관 10층",
            "numberOfSeats": "124"
          }
        }
      ]
    },
    {
      "id": "80894",
      "title": "너의 결혼식",
      "image": "http://img.cgv.co.kr/Movie/Thumbnail/Poster/000080/80894/80894_20180814_0_320.jpg",
      "plays": [
        {
          "id": 7,
          "start": "07:40",
          "end": "09:40",
          "screen": {
            "name": "5관 10층",
            "numberOfSeats": "172"
          }
        },
        {
          "id": 8,
          "start": "09:55",
          "end": "11:55",
          "screen": {
            "name": "5관 10층",
            "numberOfSeats": "172"
          }
        },
        {
          "id": 9,
          "start": "12:15",
          "end": "14:15",
          "screen": {
            "name": "5관 10층",
            "numberOfSeats": "172"
          }
        },
        {
          "id": 10,
          "start": "14:35",
          "end": "16:35",
          "screen": {
            "name": "5관 10층",
            "numberOfSeats": "172"
          }
        },
        {
          "id": 11,
          "start": "16:55",
          "end": "18:55",
          "screen": {
            "name": "5관 10층",
            "numberOfSeats": "172"
          }
        },
        {
          "id": 12,
          "start": "19:15",
          "end": "21:15",
          "screen": {
            "name": "5관 10층",
            "numberOfSeats": "172"
          }
        },
        {
          "id": 13,
          "start": "21:35",
          "end": "23:35",
          "screen": {
            "name": "5관 10층",
            "numberOfSeats": "172"
          }
        },
        {
          "id": 14,
          "start": "24:00",
          "end": "26:00",
          "screen": {
            "name": "5관 10층",
            "numberOfSeats": "172"
          }
        },
        {
          "id": 15,
          "start": "26:15",
          "end": "28:15",
          "screen": {
            "name": "5관 10층",
            "numberOfSeats": "172"
          }
        },
        {
          "id": 16,
          "start": "28:30",
          "end": "30:30",
          "screen": {
            "name": "5관 10층",
            "numberOfSeats": "172"
          }
        },
        {
          "id": 17,
          "start": "18:30",
          "end": "20:30",
          "screen": {
            "name": "6관 10층",
            "numberOfSeats": "124"
          }
        },
        {
          "id": 18,
          "start": "10:50",
          "end": "12:50",
          "screen": {
            "name": "정국관[3관 8층]",
            "numberOfSeats": "172"
          }
        },
        {
          "id": 19,
          "start": "13:10",
          "end": "15:10",
          "screen": {
            "name": "정국관[3관 8층]",
            "numberOfSeats": "172"
          }
        },
        {
          "id": 20,
          "start": "15:30",
          "end": "17:30",
          "screen": {
            "name": "정국관[3관 8층]",
            "numberOfSeats": "172"
          }
        },
        {
          "id": 21,
          "start": "17:50",
          "end": "19:50",
          "screen": {
            "name": "정국관[3관 8층]",
            "numberOfSeats": "172"
          }
        },
        {
          "id": 22,
          "start": "20:10",
          "end": "22:10",
          "screen": {
            "name": "정국관[3관 8층]",
            "numberOfSeats": "172"
          }
        },
        {
          "id": 23,
          "start": "22:30",
          "end": "24:30",
          "screen": {
            "name": "정국관[3관 8층]",
            "numberOfSeats": "172"
          }
        }
      ]
    },
    {
      "id": "80596",
      "title": "맘마미아!2",
      "image": "http://img.cgv.co.kr/Movie/Thumbnail/Poster/000080/80596/80596_20180808_0_320.jpg",
      "plays": [
        {
          "id": 24,
          "start": "07:10",
          "end": "09:14",
          "screen": {
            "name": "4관 8층",
            "numberOfSeats": "124"
          }
        },
        {
          "id": 25,
          "start": "11:50",
          "end": "13:54",
          "screen": {
            "name": "4관 8층",
            "numberOfSeats": "124"
          }
        },
        {
          "id": 26,
          "start": "21:25",
          "end": "23:29",
          "screen": {
            "name": "4관 8층",
            "numberOfSeats": "124"
          }
        },
        {
          "id": 27,
          "start": "26:10",
          "end": "28:14",
          "screen": {
            "name": "4관 8층",
            "numberOfSeats": "124"
          }
        }
      ]
    },
    {
      "id": "80861",
      "title": "목격자",
      "image": "http://img.cgv.co.kr/Movie/Thumbnail/Poster/000080/80861/80861_20180717_0_320.jpg",
      "plays": [
        {
          "id": 28,
          "start": "09:30",
          "end": "11:31",
          "screen": {
            "name": "4관 8층",
            "numberOfSeats": "124"
          }
        },
        {
          "id": 29,
          "start": "14:15",
          "end": "16:16",
          "screen": {
            "name": "4관 8층",
            "numberOfSeats": "124"
          }
        },
        {
          "id": 30,
          "start": "19:00",
          "end": "21:01",
          "screen": {
            "name": "4관 8층",
            "numberOfSeats": "124"
          }
        },
        {
          "id": 31,
          "start": "23:50",
          "end": "25:51",
          "screen": {
            "name": "4관 8층",
            "numberOfSeats": "124"
          }
        },
        {
          "id": 32,
          "start": "28:30",
          "end": "30:31",
          "screen": {
            "name": "4관 8층",
            "numberOfSeats": "124"
          }
        }
      ]
    },
    {
      "id": "80793",
      "title": "미션 임파서블: 폴아웃",
      "image": "http://img.cgv.co.kr/Movie/Thumbnail/Poster/000080/80793/80793_320.jpg",
      "plays": [
        {
          "id": 33,
          "start": "28:00",
          "end": "30:37",
          "screen": {
            "name": "1관 6층",
            "numberOfSeats": "158"
          }
        },
        {
          "id": 34,
          "start": "10:25",
          "end": "13:02",
          "screen": {
            "name": "6관 10층",
            "numberOfSeats": "124"
          }
        }
      ]
    },
    {
      "id": "80938",
      "title": "상류사회",
      "image": "http://img.cgv.co.kr/Movie/Thumbnail/Poster/000080/80938/80938_20180731_0_320.jpg",
      "plays": [
        {
          "id": 35,
          "start": "06:30",
          "end": "08:40",
          "screen": {
            "name": "2관 6층",
            "numberOfSeats": "124"
          }
        },
        {
          "id": 36,
          "start": "08:55",
          "end": "11:05",
          "screen": {
            "name": "2관 6층",
            "numberOfSeats": "124"
          }
        },
        {
          "id": 37,
          "start": "11:20",
          "end": "13:30",
          "screen": {
            "name": "2관 6층",
            "numberOfSeats": "124"
          }
        },
        {
          "id": 38,
          "start": "13:45",
          "end": "15:55",
          "screen": {
            "name": "2관 6층",
            "numberOfSeats": "124"
          }
        },
        {
          "id": 39,
          "start": "16:15",
          "end": "18:25",
          "screen": {
            "name": "2관 6층",
            "numberOfSeats": "124"
          }
        },
        {
          "id": 40,
          "start": "18:45",
          "end": "20:55",
          "screen": {
            "name": "2관 6층",
            "numberOfSeats": "124"
          }
        },
        {
          "id": 41,
          "start": "21:15",
          "end": "23:25",
          "screen": {
            "name": "2관 6층",
            "numberOfSeats": "124"
          }
        },
        {
          "id": 42,
          "start": "23:45",
          "end": "25:55",
          "screen": {
            "name": "2관 6층",
            "numberOfSeats": "124"
          }
        },
        {
          "id": 43,
          "start": "26:25",
          "end": "28:35",
          "screen": {
            "name": "2관 6층",
            "numberOfSeats": "124"
          }
        }
      ]
    },
    {
      "id": "80916",
      "title": "서치",
      "image": "http://img.cgv.co.kr/Movie/Thumbnail/Poster/000080/80916/80916_20180803_0_320.jpg",
      "plays": [
        {
          "id": 44,
          "start": "07:30",
          "end": "09:22",
          "screen": {
            "name": "1관 6층",
            "numberOfSeats": "158"
          }
        },
        {
          "id": 45,
          "start": "09:40",
          "end": "11:32",
          "screen": {
            "name": "1관 6층",
            "numberOfSeats": "158"
          }
        },
        {
          "id": 46,
          "start": "12:00",
          "end": "13:52",
          "screen": {
            "name": "1관 6층",
            "numberOfSeats": "158"
          }
        },
        {
          "id": 47,
          "start": "14:10",
          "end": "16:02",
          "screen": {
            "name": "1관 6층",
            "numberOfSeats": "158"
          }
        },
        {
          "id": 48,
          "start": "16:25",
          "end": "18:17",
          "screen": {
            "name": "1관 6층",
            "numberOfSeats": "158"
          }
        },
        {
          "id": 49,
          "start": "18:35",
          "end": "20:27",
          "screen": {
            "name": "1관 6층",
            "numberOfSeats": "158"
          }
        },
        {
          "id": 50,
          "start": "20:45",
          "end": "22:37",
          "screen": {
            "name": "1관 6층",
            "numberOfSeats": "158"
          }
        },
        {
          "id": 51,
          "start": "22:55",
          "end": "24:47",
          "screen": {
            "name": "1관 6층",
            "numberOfSeats": "158"
          }
        },
        {
          "id": 52,
          "start": "25:05",
          "end": "26:57",
          "screen": {
            "name": "1관 6층",
            "numberOfSeats": "158"
          }
        },
        {
          "id": 53,
          "start": "27:40",
          "end": "29:32",
          "screen": {
            "name": "정국관[3관 8층]",
            "numberOfSeats": "172"
          }
        }
      ]
    },
    {
      "id": "80810",
      "title": "신과함께 인과 연",
      "image": "http://img.cgv.co.kr/Movie/Thumbnail/Poster/000080/80810/80810_20180703_0_320.jpg",
      "plays": [
        {
          "id": 54,
          "start": "20:55",
          "end": "23:26",
          "screen": {
            "name": "6관 10층",
            "numberOfSeats": "124"
          }
        },
        {
          "id": 55,
          "start": "08:00",
          "end": "10:31",
          "screen": {
            "name": "정국관[3관 8층]",
            "numberOfSeats": "172"
          }
        },
        {
          "id": 56,
          "start": "24:50",
          "end": "27:21",
          "screen": {
            "name": "정국관[3관 8층]",
            "numberOfSeats": "172"
          }
        }
      ]
    }
  ]
}
